{
    "key": "sp-news",
    "name": "SitePoint News Feed",
    "description": "Shows the latest news from SitePoint.com",
    "vendor": {
      "name": "SitePoint Pty Ltd",
      "url": "https://sitepoint.com"
    },
    "baseUrl": "https://c245e4e0.ngrok.io",
    "links": {
      "self": "{{localBaseUrl}}/atlassian-connect.json",
      "homepage": "{{localBaseUrl}}/atlassian-connect.json"
    },
   
    "scopes": [
      "READ"
    ],
    "modules": {
      "generalPages": [
        {
          "key": "news-feed-page-jira",
          "location": "system.top.navigation.bar",
          "name": {
            "value": "News Feed"
          },
          "url": "/news-feed",
          "conditions": [
            {
              "condition": "user_is_logged_in"
            }
          ]
        }
      ]
    }
  }